{
    "name": "format-sf",
    "url": "https://bitbucket.org/arlez80/format-sf",
    "license": "MIT",
    "tags": ["cross"],
    "description": "SoundFont format Reader",
    "version": "0.0.1",
    "releasenote": "beta",
    "contributors": ["arlez80"],
    "dependencies": { }
}
